0 0 6 0 1
1 1 4.62091 0.333333 0.540302
2 4 1.75156 2.66667 -0.416147
3 9 0.0300225 9 -0.989992
4 16 1.03907 21.3333 -0.653644
5 25 3.85099 41.6667 0.283662
6 36 5.88051 72 0.96017
7 49 5.26171 114.333 0.753902
8 64 2.5635 170.667 -0.1455
9 81 0.266609 243 -0.91113
