\relax 
\@writefile{toc}{\contentsline {section}{\numberline {1}The error function}{1}}
\newlabel{mac}{{5}{1}}
\@writefile{lof}{\contentsline {figure}{\numberline {1}{\ignorespaces The error function.}}{1}}
\newlabel{errfunc}{{1}{1}}
