\relax 
\citation{book}
\@writefile{toc}{\contentsline {section}{\numberline {1}Introduction}{1}}
\@writefile{toc}{\contentsline {section}{\numberline {2}Description}{1}}
\@writefile{toc}{\contentsline {section}{\numberline {3}Solution}{1}}
\@writefile{lof}{\contentsline {figure}{\numberline {1}{\ignorespaces Relativistc orbit ode system solved using the two-step method and compared to a gsl-routine. The two-step method is seen in lines and the gsl routine is seen in dashed lines. The two results match up perfectly.}}{3}}
\newlabel{fig:orbit}{{1}{3}}
\@writefile{lof}{\contentsline {figure}{\numberline {2}{\ignorespaces Sine-function ode system solved using the two-step method and a sine-function plotted on top. The two-step method is seen as the line and the sine-function is seen in dashed lines. The two match up perfectly.}}{3}}
\newlabel{fig:sin}{{2}{3}}
\bibcite{book}{1}
