\relax 
\@writefile{toc}{\contentsline {section}{\numberline {1}Description}{1}}
\@writefile{toc}{\contentsline {section}{\numberline {2}Solution}{1}}
\@writefile{lof}{\contentsline {figure}{\numberline {1}{\ignorespaces Solution to the differential equation system along with the correct function.}}{1}}
\newlabel{figure}{{1}{1}}
