<?xml version="1.0" encoding="utf-8"  standalone="no"?>
<svg 
 width="600" height="480"
 viewBox="0 0 600 480"
 xmlns="http://www.w3.org/2000/svg"
 xmlns:xlink="http://www.w3.org/1999/xlink"
>

<title>Gnuplot</title>
<desc>Produced by GNUPLOT 5.2 patchlevel 2 </desc>

<g id="gnuplot_canvas">

<rect x="0" y="0" width="600" height="480" fill="#ffffff"/>
<defs>

	<circle id='gpDot' r='0.5' stroke-width='0.5'/>
	<path id='gpPt0' stroke-width='0.222' stroke='currentColor' d='M-1,0 h2 M0,-1 v2'/>
	<path id='gpPt1' stroke-width='0.222' stroke='currentColor' d='M-1,-1 L1,1 M1,-1 L-1,1'/>
	<path id='gpPt2' stroke-width='0.222' stroke='currentColor' d='M-1,0 L1,0 M0,-1 L0,1 M-1,-1 L1,1 M-1,1 L1,-1'/>
	<rect id='gpPt3' stroke-width='0.222' stroke='currentColor' x='-1' y='-1' width='2' height='2'/>
	<rect id='gpPt4' stroke-width='0.222' stroke='currentColor' fill='currentColor' x='-1' y='-1' width='2' height='2'/>
	<circle id='gpPt5' stroke-width='0.222' stroke='currentColor' cx='0' cy='0' r='1'/>
	<use xlink:href='#gpPt5' id='gpPt6' fill='currentColor' stroke='none'/>
	<path id='gpPt7' stroke-width='0.222' stroke='currentColor' d='M0,-1.33 L-1.33,0.67 L1.33,0.67 z'/>
	<use xlink:href='#gpPt7' id='gpPt8' fill='currentColor' stroke='none'/>
	<use xlink:href='#gpPt7' id='gpPt9' stroke='currentColor' transform='rotate(180)'/>
	<use xlink:href='#gpPt9' id='gpPt10' fill='currentColor' stroke='none'/>
	<use xlink:href='#gpPt3' id='gpPt11' stroke='currentColor' transform='rotate(45)'/>
	<use xlink:href='#gpPt11' id='gpPt12' fill='currentColor' stroke='none'/>
	<path id='gpPt13' stroke-width='0.222' stroke='currentColor' d='M0,1.330 L1.265,0.411 L0.782,-1.067 L-0.782,-1.076 L-1.265,0.411 z'/>
	<use xlink:href='#gpPt13' id='gpPt14' fill='currentColor' stroke='none'/>
	<filter id='textbox' filterUnits='objectBoundingBox' x='0' y='0' height='1' width='1'>
	  <feFlood flood-color='#FFFFFF' flood-opacity='1' result='bgnd'/>
	  <feComposite in='SourceGraphic' in2='bgnd' operator='atop'/>
	</filter>
	<filter id='greybox' filterUnits='objectBoundingBox' x='0' y='0' height='1' width='1'>
	  <feFlood flood-color='lightgrey' flood-opacity='1' result='grey'/>
	  <feComposite in='SourceGraphic' in2='grey' operator='atop'/>
	</filter>
</defs>
<g fill="none" color="#FFFFFF" stroke="currentColor" stroke-width="1.00" stroke-linecap="butt" stroke-linejoin="miter">
</g>
<g fill="none" color="black" stroke="currentColor" stroke-width="1.00" stroke-linecap="butt" stroke-linejoin="miter">
	<path stroke='black'  d='M96.8,422.4 L105.8,422.4 M575.0,422.4 L566.0,422.4  '/>	<g transform="translate(88.5,426.3)" stroke="none" fill="black" font-family="Arial" font-size="12.00"  text-anchor="end">
		<text><tspan font-family="Arial" > 0.0001</tspan></text>
	</g>
</g>
<g fill="none" color="black" stroke="currentColor" stroke-width="1.00" stroke-linecap="butt" stroke-linejoin="miter">
	<path stroke='black'  d='M96.8,398.1 L101.3,398.1 M575.0,398.1 L570.5,398.1 M96.8,383.8 L101.3,383.8 M575.0,383.8 L570.5,383.8
		M96.8,373.7 L101.3,373.7 M575.0,373.7 L570.5,373.7 M96.8,365.9 L101.3,365.9 M575.0,365.9 L570.5,365.9
		M96.8,359.5 L101.3,359.5 M575.0,359.5 L570.5,359.5 M96.8,354.1 L101.3,354.1 M575.0,354.1 L570.5,354.1
		M96.8,349.4 L101.3,349.4 M575.0,349.4 L570.5,349.4 M96.8,345.2 L101.3,345.2 M575.0,345.2 L570.5,345.2
		M96.8,341.5 L105.8,341.5 M575.0,341.5 L566.0,341.5  '/>	<g transform="translate(88.5,345.4)" stroke="none" fill="black" font-family="Arial" font-size="12.00"  text-anchor="end">
		<text><tspan font-family="Arial" > 0.001</tspan></text>
	</g>
</g>
<g fill="none" color="black" stroke="currentColor" stroke-width="1.00" stroke-linecap="butt" stroke-linejoin="miter">
	<path stroke='black'  d='M96.8,317.2 L101.3,317.2 M575.0,317.2 L570.5,317.2 M96.8,303.0 L101.3,303.0 M575.0,303.0 L570.5,303.0
		M96.8,292.9 L101.3,292.9 M575.0,292.9 L570.5,292.9 M96.8,285.0 L101.3,285.0 M575.0,285.0 L570.5,285.0
		M96.8,278.6 L101.3,278.6 M575.0,278.6 L570.5,278.6 M96.8,273.2 L101.3,273.2 M575.0,273.2 L570.5,273.2
		M96.8,268.5 L101.3,268.5 M575.0,268.5 L570.5,268.5 M96.8,264.4 L101.3,264.4 M575.0,264.4 L570.5,264.4
		M96.8,260.7 L105.8,260.7 M575.0,260.7 L566.0,260.7  '/>	<g transform="translate(88.5,264.6)" stroke="none" fill="black" font-family="Arial" font-size="12.00"  text-anchor="end">
		<text><tspan font-family="Arial" > 0.01</tspan></text>
	</g>
</g>
<g fill="none" color="black" stroke="currentColor" stroke-width="1.00" stroke-linecap="butt" stroke-linejoin="miter">
	<path stroke='black'  d='M96.8,236.3 L101.3,236.3 M575.0,236.3 L570.5,236.3 M96.8,222.1 L101.3,222.1 M575.0,222.1 L570.5,222.1
		M96.8,212.0 L101.3,212.0 M575.0,212.0 L570.5,212.0 M96.8,204.2 L101.3,204.2 M575.0,204.2 L570.5,204.2
		M96.8,197.8 L101.3,197.8 M575.0,197.8 L570.5,197.8 M96.8,192.3 L101.3,192.3 M575.0,192.3 L570.5,192.3
		M96.8,187.7 L101.3,187.7 M575.0,187.7 L570.5,187.7 M96.8,183.5 L101.3,183.5 M575.0,183.5 L570.5,183.5
		M96.8,179.8 L105.8,179.8 M575.0,179.8 L566.0,179.8  '/>	<g transform="translate(88.5,183.7)" stroke="none" fill="black" font-family="Arial" font-size="12.00"  text-anchor="end">
		<text><tspan font-family="Arial" > 0.1</tspan></text>
	</g>
</g>
<g fill="none" color="black" stroke="currentColor" stroke-width="1.00" stroke-linecap="butt" stroke-linejoin="miter">
	<path stroke='black'  d='M96.8,155.5 L101.3,155.5 M575.0,155.5 L570.5,155.5 M96.8,141.2 L101.3,141.2 M575.0,141.2 L570.5,141.2
		M96.8,131.1 L101.3,131.1 M575.0,131.1 L570.5,131.1 M96.8,123.3 L101.3,123.3 M575.0,123.3 L570.5,123.3
		M96.8,116.9 L101.3,116.9 M575.0,116.9 L570.5,116.9 M96.8,111.5 L101.3,111.5 M575.0,111.5 L570.5,111.5
		M96.8,106.8 L101.3,106.8 M575.0,106.8 L570.5,106.8 M96.8,102.7 L101.3,102.7 M575.0,102.7 L570.5,102.7
		M96.8,99.0 L105.8,99.0 M575.0,99.0 L566.0,99.0  '/>	<g transform="translate(88.5,102.9)" stroke="none" fill="black" font-family="Arial" font-size="12.00"  text-anchor="end">
		<text><tspan font-family="Arial" > 1</tspan></text>
	</g>
</g>
<g fill="none" color="black" stroke="currentColor" stroke-width="1.00" stroke-linecap="butt" stroke-linejoin="miter">
	<path stroke='black'  d='M96.8,74.6 L101.3,74.6 M575.0,74.6 L570.5,74.6 M96.8,60.4 L101.3,60.4 M575.0,60.4 L570.5,60.4
		M96.8,50.3 L101.3,50.3 M575.0,50.3 L570.5,50.3 M96.8,42.4 L101.3,42.4 M575.0,42.4 L570.5,42.4
		M96.8,36.0 L101.3,36.0 M575.0,36.0 L570.5,36.0 M96.8,30.6 L101.3,30.6 M575.0,30.6 L570.5,30.6
		M96.8,25.9 L101.3,25.9 M575.0,25.9 L570.5,25.9 M96.8,21.8 L101.3,21.8 M575.0,21.8 L570.5,21.8
		M96.8,18.1 L105.8,18.1 M575.0,18.1 L566.0,18.1  '/>	<g transform="translate(88.5,22.0)" stroke="none" fill="black" font-family="Arial" font-size="12.00"  text-anchor="end">
		<text><tspan font-family="Arial" > 10</tspan></text>
	</g>
</g>
<g fill="none" color="black" stroke="currentColor" stroke-width="1.00" stroke-linecap="butt" stroke-linejoin="miter">
	<path stroke='black'  d='M96.8,422.4 L96.8,413.4 M96.8,18.1 L96.8,27.1  '/>	<g transform="translate(96.8,444.3)" stroke="none" fill="black" font-family="Arial" font-size="12.00"  text-anchor="middle">
		<text><tspan font-family="Arial" > 10</tspan></text>
	</g>
</g>
<g fill="none" color="black" stroke="currentColor" stroke-width="1.00" stroke-linecap="butt" stroke-linejoin="miter">
	<path stroke='black'  d='M194.3,422.4 L194.3,417.9 M194.3,18.1 L194.3,22.6 M251.3,422.4 L251.3,417.9 M251.3,18.1 L251.3,22.6
		M291.7,422.4 L291.7,417.9 M291.7,18.1 L291.7,22.6 M323.1,422.4 L323.1,417.9 M323.1,18.1 L323.1,22.6
		M348.7,422.4 L348.7,417.9 M348.7,18.1 L348.7,22.6 M370.4,422.4 L370.4,417.9 M370.4,18.1 L370.4,22.6
		M389.2,422.4 L389.2,417.9 M389.2,18.1 L389.2,22.6 M405.7,422.4 L405.7,417.9 M405.7,18.1 L405.7,22.6
		M420.5,422.4 L420.5,413.4 M420.5,18.1 L420.5,27.1  '/>	<g transform="translate(420.5,444.3)" stroke="none" fill="black" font-family="Arial" font-size="12.00"  text-anchor="middle">
		<text><tspan font-family="Arial" > 100</tspan></text>
	</g>
</g>
<g fill="none" color="black" stroke="currentColor" stroke-width="1.00" stroke-linecap="butt" stroke-linejoin="miter">
	<path stroke='black'  d='M518.0,422.4 L518.0,417.9 M518.0,18.1 L518.0,22.6 M575.0,422.4 L575.0,417.9 M575.0,18.1 L575.0,22.6
		 '/></g>
<g fill="none" color="black" stroke="currentColor" stroke-width="1.00" stroke-linecap="butt" stroke-linejoin="miter">
	<path stroke='black'  d='M96.8,18.1 L96.8,422.4 L575.0,422.4 L575.0,18.1 L96.8,18.1 Z  '/></g>
<g fill="none" color="black" stroke="currentColor" stroke-width="1.00" stroke-linecap="butt" stroke-linejoin="miter">
	<g transform="translate(16.3,220.3) rotate(270)" stroke="none" fill="black" font-family="Arial" font-size="12.00"  text-anchor="middle">
		<text><tspan font-family="Arial" >time [s]</tspan></text>
	</g>
</g>
<g fill="none" color="black" stroke="currentColor" stroke-width="1.00" stroke-linecap="butt" stroke-linejoin="miter">
	<g transform="translate(335.9,471.3)" stroke="none" fill="black" font-family="Arial" font-size="12.00"  text-anchor="middle">
		<text><tspan font-family="Arial" >dimension of matrix</tspan></text>
	</g>
</g>
<g fill="none" color="black" stroke="currentColor" stroke-width="1.00" stroke-linecap="butt" stroke-linejoin="miter">
</g>
	<g id="gnuplot_plot_1" ><title>cyclic sweep</title>
<g fill="none" color="black" stroke="currentColor" stroke-width="1.00" stroke-linecap="butt" stroke-linejoin="miter">
	<g transform="translate(507.9,40.0)" stroke="none" fill="black" font-family="Arial" font-size="12.00"  text-anchor="end">
		<text><tspan font-family="Arial" >cyclic sweep</tspan></text>
	</g>
</g>
<g fill="none" color="black" stroke="currentColor" stroke-width="1.00" stroke-linecap="butt" stroke-linejoin="miter">
	<use xlink:href='#gpPt0' transform='translate(323.1,260.7) scale(4.50)' color='rgb(148,   0, 211)'/>
	<use xlink:href='#gpPt0' transform='translate(370.4,212.0) scale(4.50)' color='rgb(148,   0, 211)'/>
	<use xlink:href='#gpPt0' transform='translate(405.7,183.5) scale(4.50)' color='rgb(148,   0, 211)'/>
	<use xlink:href='#gpPt0' transform='translate(433.9,161.2) scale(4.50)' color='rgb(148,   0, 211)'/>
	<use xlink:href='#gpPt0' transform='translate(457.4,142.4) scale(4.50)' color='rgb(148,   0, 211)'/>
	<use xlink:href='#gpPt0' transform='translate(477.5,125.5) scale(4.50)' color='rgb(148,   0, 211)'/>
	<use xlink:href='#gpPt0' transform='translate(495.1,107.7) scale(4.50)' color='rgb(148,   0, 211)'/>
	<use xlink:href='#gpPt0' transform='translate(510.8,95.6) scale(4.50)' color='rgb(148,   0, 211)'/>
	<use xlink:href='#gpPt0' transform='translate(524.9,84.7) scale(4.50)' color='rgb(148,   0, 211)'/>
	<use xlink:href='#gpPt0' transform='translate(537.6,74.6) scale(4.50)' color='rgb(148,   0, 211)'/>
	<use xlink:href='#gpPt0' transform='translate(549.4,65.8) scale(4.50)' color='rgb(148,   0, 211)'/>
	<use xlink:href='#gpPt0' transform='translate(560.2,57.4) scale(4.50)' color='rgb(148,   0, 211)'/>
	<use xlink:href='#gpPt0' transform='translate(570.2,49.8) scale(4.50)' color='rgb(148,   0, 211)'/>
	<use xlink:href='#gpPt0' transform='translate(537.3,36.1) scale(4.50)' color='rgb(148,   0, 211)'/>
</g>
	</g>
	<g id="gnuplot_plot_2" ><title>O(x3)</title>
<g fill="none" color="black" stroke="currentColor" stroke-width="1.00" stroke-linecap="butt" stroke-linejoin="miter">
	<g transform="translate(507.9,58.0)" stroke="none" fill="black" font-family="Arial" font-size="12.00"  text-anchor="end">
		<text><tspan font-family="Arial" >O(x</tspan><tspan font-family="Arial"  font-size="9.6" dy="-6.00px">3</tspan><tspan font-family="Arial"  font-size="12.0" dy="6.00px">)</tspan></text>
	</g>
</g>
<g fill="none" color="black" stroke="currentColor" stroke-width="1.00" stroke-linecap="butt" stroke-linejoin="miter">
	<path stroke='rgb(  0, 158, 115)' stroke-dasharray='2.5,4.0'  d='M516.2,54.1 L558.4,54.1 M96.8,404.5 L101.6,400.8 L106.5,397.2 L111.3,393.6 L116.1,390.0 L121.0,386.4
		L125.8,382.7 L130.6,379.1 L135.4,375.5 L140.3,371.9 L145.1,368.3 L149.9,364.6 L154.8,361.0 L159.6,357.4
		L164.4,353.8 L169.3,350.2 L174.1,346.6 L178.9,342.9 L183.7,339.3 L188.6,335.7 L193.4,332.1 L198.2,328.5
		L203.1,324.8 L207.9,321.2 L212.7,317.6 L217.6,314.0 L222.4,310.4 L227.2,306.7 L232.0,303.1 L236.9,299.5
		L241.7,295.9 L246.5,292.3 L251.4,288.6 L256.2,285.0 L261.0,281.4 L265.9,277.8 L270.7,274.2 L275.5,270.5
		L280.4,266.9 L285.2,263.3 L290.0,259.7 L294.8,256.1 L299.7,252.4 L304.5,248.8 L309.3,245.2 L314.2,241.6
		L319.0,238.0 L323.8,234.3 L328.7,230.7 L333.5,227.1 L338.3,223.5 L343.1,219.9 L348.0,216.3 L352.8,212.6
		L357.6,209.0 L362.5,205.4 L367.3,201.8 L372.1,198.2 L377.0,194.5 L381.8,190.9 L386.6,187.3 L391.4,183.7
		L396.3,180.1 L401.1,176.4 L405.9,172.8 L410.8,169.2 L415.6,165.6 L420.4,162.0 L425.3,158.3 L430.1,154.7
		L434.9,151.1 L439.8,147.5 L444.6,143.9 L449.4,140.2 L454.2,136.6 L459.1,133.0 L463.9,129.4 L468.7,125.8
		L473.6,122.1 L478.4,118.5 L483.2,114.9 L488.1,111.3 L492.9,107.7 L497.7,104.1 L502.5,100.4 L507.4,96.8
		L512.2,93.2 L517.0,89.6 L521.9,86.0 L526.7,82.3 L531.5,78.7 L536.4,75.1 L541.2,71.5 L546.0,67.9
		L550.8,64.2 L555.7,60.6 L560.5,57.0 L565.3,53.4 L570.2,49.8 L575.0,46.1  '/></g>
	</g>
<g fill="none" color="#FFFFFF" stroke="rgb(  0, 158, 115)" stroke-width="2.00" stroke-linecap="butt" stroke-linejoin="miter">
</g>
<g fill="none" color="black" stroke="currentColor" stroke-width="2.00" stroke-linecap="butt" stroke-linejoin="miter">
</g>
<g fill="none" color="black" stroke="black" stroke-width="1.00" stroke-linecap="butt" stroke-linejoin="miter">
</g>
<g fill="none" color="black" stroke="currentColor" stroke-width="1.00" stroke-linecap="butt" stroke-linejoin="miter">
	<path stroke='black'  d='M96.8,18.1 L96.8,422.4 L575.0,422.4 L575.0,18.1 L96.8,18.1 Z  '/></g>
<g fill="none" color="black" stroke="currentColor" stroke-width="1.00" stroke-linecap="butt" stroke-linejoin="miter">
</g>
</g>
</svg>

