1 0 0
101 0.147054 0.157579
201 0.0865046 0.108441
301 0.0641398 0.089088
401 0.0916983 0.0769096
501 0.0797747 0.0700067
601 0.0813101 0.0632779
701 0.0751055 0.0586438
801 0.0709329 0.0553831
901 0.0636529 0.0530876
1001 0.0789858 0.0501382
1101 0.0731934 0.0474108
1201 0.0677316 0.0458449
1301 0.0638343 0.0444095
1401 0.0604864 0.0424656
1501 0.0572076 0.0412924
1601 0.0545292 0.0403685
1701 0.0517533 0.0392365
1801 0.0489908 0.0377189
1901 0.0470206 0.0366195
2001 0.044834 0.0357012
2101 0.0456329 0.0348406
2201 0.0437893 0.0339117
2301 0.0422769 0.0330229
2401 0.0456864 0.0322933
2501 0.0441013 0.0315873
2601 0.0428394 0.0310806
2701 0.0416424 0.0304679
2801 0.0407226 0.0300643
2901 0.0400329 0.0294767
3001 0.039236 0.0290035
3101 0.0390312 0.0284562
3201 0.0378809 0.0279781
3301 0.0370153 0.0273433
3401 0.0391287 0.0268853
3501 0.0382148 0.0265766
3601 0.0379722 0.026145
3701 0.0372145 0.0258087
3801 0.0363273 0.0253888
3901 0.0355583 0.0251179
4001 0.0355867 0.0248023
4101 0.0349679 0.0244551
4201 0.0344177 0.0240886
4301 0.0337097 0.0238003
4401 0.0332043 0.0235187
4501 0.0349566 0.0233195
4601 0.0344726 0.0230389
4701 0.0337584 0.0228925
4801 0.0331843 0.0226932
4901 0.0325699 0.0224224
5001 0.0319996 0.0221531
5101 0.0324996 0.0219021
5201 0.032126 0.0216393
5301 0.0318219 0.0214461
5401 0.0312527 0.0212915
5501 0.0310929 0.0210702
5601 0.0314569 0.0208805
5701 0.0309413 0.0207241
5801 0.0304571 0.02056
5901 0.0300697 0.020396
6001 0.0296345 0.0202318
6101 0.0291956 0.0200474
6201 0.0288616 0.0198602
6301 0.0284213 0.0197066
6401 0.0281306 0.0196139
6501 0.0277945 0.0194481
6601 0.0274264 0.0193272
6701 0.0270566 0.019174
6801 0.0270379 0.0190234
6901 0.026679 0.0188734
7001 0.0263066 0.0187116
7101 0.025985 0.0185453
7201 0.0256497 0.0184329
7301 0.0253168 0.0182782
7401 0.0249859 0.0182009
7501 0.0247498 0.0180614
7601 0.024454 0.0179221
7701 0.0242119 0.0178039
7801 0.0241702 0.0177263
7901 0.0239142 0.0176238
8001 0.0237396 0.0174954
8101 0.0234729 0.0174037
8201 0.0234748 0.0172776
8301 0.0235999 0.0171623
8401 0.0233315 0.0170327
8501 0.024179 0.0169702
8601 0.0255225 0.0168919
8701 0.0252444 0.0168416
8801 0.0249682 0.0167351
8901 0.0247152 0.0166631
9001 0.0244784 0.0165767
9101 0.024301 0.0164923
9201 0.0240866 0.0164277
9301 0.0238399 0.0163525
9401 0.0236014 0.0162795
9501 0.0233869 0.0161855
9601 0.027488 0.0160831
9701 0.0272264 0.0159813
9801 0.0269692 0.0159303
9901 0.0268484 0.0158508
10001 0.0266025 0.0157761
10101 0.0264369 0.0156987
10201 0.0262008 0.0156205
10301 0.0259518 0.015526
10401 0.0257127 0.0154427
10501 0.0254781 0.0153537
10601 0.0252434 0.0152706
10701 0.0250157 0.0151905
10801 0.0247917 0.0151226
10901 0.0251791 0.0150566
11001 0.024959 0.0149984
11101 0.02475 0.0149454
11201 0.0248271 0.0148868
11301 0.0246115 0.0148245
11401 0.0244864 0.0147637
11501 0.0242803 0.0146786
11601 0.0240956 0.0146228
11701 0.0239076 0.0145418
11801 0.0237107 0.0144696
11901 0.0235157 0.0144014
12001 0.02338 0.0143742
12101 0.0232129 0.0142851
12201 0.0230492 0.0142372
12301 0.0228656 0.0141731
12401 0.0226911 0.0141011
12501 0.02253 0.0140505
12601 0.0223647 0.0139938
12701 0.0221929 0.0139468
12801 0.0220314 0.0138914
12901 0.0218683 0.0138241
13001 0.0217236 0.0137906
13101 0.0215834 0.0137388
13201 0.0214262 0.0136891
13301 0.0212723 0.0136292
13401 0.0212019 0.0135823
13501 0.0210504 0.0135451
13601 0.0209073 0.0135016
13701 0.020774 0.0134474
13801 0.0206371 0.0133905
13901 0.0204976 0.0133509
14001 0.0204129 0.013303
14101 0.0202828 0.0132728
14201 0.0201495 0.0132357
14301 0.0204612 0.0131857
14401 0.0203429 0.0131149
14501 0.262488 0.0130672
14601 0.260691 0.0130286
14701 0.258918 0.0129872
14801 0.25717 0.0129463
14901 0.255447 0.01289
15001 0.253746 0.012845
15101 0.252067 0.0127961
15201 0.250815 0.0127507
15301 0.249176 0.0127227
15401 0.247559 0.012681
15501 0.245965 0.0126365
15601 0.244389 0.0125915
15701 0.242834 0.0125417
15801 0.241301 0.0124964
15901 0.239784 0.0124562
16001 0.238287 0.0124098
16101 0.236808 0.0123738
16201 0.235347 0.0123441
16301 0.233904 0.0123169
16401 0.23248 0.01229
16501 0.231074 0.0122461
16601 0.229682 0.0122004
16701 0.228308 0.0121693
16801 0.22695 0.0121426
16901 0.225609 0.0120994
17001 0.224283 0.0120536
17101 0.222972 0.0120129
17201 0.221677 0.0119871
17301 0.220396 0.0119661
17401 0.219132 0.0119286
17501 0.217883 0.011889
17601 0.21665 0.0118571
17701 0.215427 0.0118277
17801 0.214484 0.0117915
17901 0.213289 0.0117555
18001 0.212105 0.0117135
18101 0.210934 0.011685
18201 0.209775 0.0116487
18301 0.208631 0.0116282
18401 0.207503 0.0115972
18501 0.206383 0.0115627
18601 0.205274 0.0115292
18701 0.204177 0.0114943
18801 0.203097 0.0114569
18901 0.202023 0.0114354
19001 0.200961 0.0114098
19101 0.199918 0.011377
19201 0.198877 0.0113487
19301 0.197849 0.0113206
19401 0.19683 0.0112913
19501 0.19583 0.0112577
19601 0.194871 0.0112279
19701 0.193887 0.0112112
19801 0.192915 0.0111903
19901 0.191947 0.0111693
20001 0.191005 0.0111448
20101 0.190056 0.0111145
20201 0.189116 0.0110894
20301 0.188185 0.0110603
20401 0.187263 0.0110311
20501 0.186354 0.0110099
20601 0.185451 0.0109847
20701 0.184556 0.010954
20801 0.18367 0.0109345
20901 0.182792 0.0109025
21001 0.181922 0.0108782
21101 0.18106 0.0108596
21201 0.180208 0.0108325
21301 0.179362 0.0107995
21401 0.178527 0.0107714
21501 0.177697 0.0107439
21601 0.176875 0.0107189
21701 0.17606 0.0106954
21801 0.175254 0.0106677
21901 0.174454 0.0106495
22001 0.173663 0.0106342
22101 0.172878 0.0106109
22201 0.172105 0.0105809
22301 0.171334 0.0105554
22401 0.170569 0.0105355
22501 0.169812 0.0105091
22601 0.169061 0.0104859
22701 0.168318 0.0104623
22801 0.16758 0.0104364
22901 0.166849 0.010406
23001 0.166127 0.0103799
23101 0.165408 0.0103527
23201 0.164696 0.010335
23301 0.16399 0.0103066
23401 0.163292 0.0102883
23501 0.162598 0.0102743
23601 0.16191 0.0102543
23701 0.161229 0.0102322
23801 0.160552 0.0102219
23901 0.159885 0.0101915
24001 0.15922 0.0101711
24101 0.15856 0.0101484
24201 0.157905 0.0101307
24301 0.157256 0.0101059
24401 0.156622 0.0100837
24501 0.155983 0.0100706
24601 0.15535 0.0100549
24701 0.154721 0.0100296
24801 0.154098 0.0100054
24901 0.15348 0.00998757
25001 0.152868 0.00996316
25101 0.152259 0.00994184
25201 0.151656 0.00991841
25301 0.151057 0.00989906
25401 0.150464 0.00987699
25501 0.149874 0.00985806
25601 0.14929 0.00984044
25701 0.14871 0.00981876
25801 0.148135 0.00980013
25901 0.147563 0.00977946
26001 0.146996 0.00975712
26101 0.146445 0.00973937
26201 0.145887 0.00971955
26301 0.145333 0.00969824
26401 0.144784 0.00967864
26501 0.144238 0.00965519
26601 0.143698 0.00964222
26701 0.14316 0.00962511
26801 0.142626 0.00960421
26901 0.142096 0.0095837
27001 0.141571 0.00956302
27101 0.141049 0.0095473
27201 0.140532 0.00953359
27301 0.140018 0.00951231
27401 0.139574 0.00949636
27501 0.139067 0.00948232
27601 0.138563 0.00945978
27701 0.138064 0.00944808
27801 0.137568 0.00943519
27901 0.137102 0.00941338
28001 0.136613 0.00940083
28101 0.136128 0.00938294
28201 0.135645 0.00936773
28301 0.135166 0.00934655
28401 0.134691 0.00933314
28501 0.134219 0.00931196
28601 0.13375 0.00929721
28701 0.133284 0.00928475
28801 0.132822 0.00927131
28901 0.132363 0.00925334
29001 0.131906 0.00923624
29101 0.131454 0.00921891
29201 0.131004 0.00920064
29301 0.130558 0.00918035
29401 0.130114 0.00916482
29501 0.129674 0.00914757
29601 0.129236 0.00913292
29701 0.128801 0.00911684
29801 0.12837 0.00910139
29901 0.12794 0.00908591
30001 0.12752 0.00907725
30101 0.127097 0.00906443
30201 0.126676 0.00905139
30301 0.126258 0.00903258
30401 0.125843 0.00901529
30501 0.125431 0.00900101
30601 0.125033 0.00898617
30701 0.124626 0.00896915
30801 0.124226 0.00895258
30901 0.123824 0.00894267
31001 0.123426 0.00893656
31101 0.123031 0.00892197
31201 0.122637 0.00890213
31301 0.122245 0.00889157
31401 0.121857 0.00887658
31501 0.12147 0.00885821
31601 0.121089 0.00884935
31701 0.120708 0.00883531
31801 0.120329 0.00882362
31901 0.119953 0.00881128
32001 0.119578 0.00879246
32101 0.119208 0.00877856
32201 0.118848 0.00876365
32301 0.118481 0.00874884
32401 0.118116 0.00873721
32501 0.117753 0.00872278
32601 0.117392 0.00870864
32701 0.117034 0.00869728
32801 0.116683 0.0086839
32901 0.11633 0.00866772
33001 0.115978 0.0086598
33101 0.115632 0.00864564
33201 0.115284 0.00863392
33301 0.114938 0.00862266
33401 0.114595 0.00860572
33501 0.114254 0.00859399
33601 0.113933 0.00858082
33701 0.113598 0.00856811
33801 0.113262 0.0085575
33901 0.113015 0.00854668
34001 0.112683 0.00853985
34101 0.112354 0.00852352
34201 0.112026 0.00850976
34301 0.111701 0.00849589
34401 0.111377 0.00848448
34501 0.111055 0.00847226
34601 0.110734 0.00846025
34701 0.110416 0.00844315
34801 0.110099 0.00842758
34901 0.109784 0.00841306
35001 0.109472 0.00840116
35101 0.109162 0.00838543
35201 0.108852 0.00837497
35301 0.108545 0.00836338
35401 0.108238 0.00835522
35501 0.107933 0.00834449
35601 0.107632 0.00833432
35701 0.107331 0.00832229
35801 0.107033 0.00831766
35901 0.106735 0.00830563
36001 0.106439 0.00829144
36101 0.106149 0.00828093
36201 0.105858 0.00827619
36301 0.0212517 0.00826421
36401 0.0211948 0.00825192
36501 0.0211374 0.00824213
36601 0.021081 0.00822792
36701 0.0210399 0.008215
36801 0.020991 0.0082069
36901 0.0209667 0.00819451
37001 0.0209112 0.00818078
37101 0.0208556 0.00817403
37201 0.0208008 0.00816382
37301 0.0207473 0.00815307
37401 0.0206931 0.0081391
37501 0.0206399 0.00812771
37601 0.0205879 0.0081159
37701 0.0205365 0.00810557
37801 0.0204836 0.00809736
37901 0.0204317 0.0080884
38001 0.0203802 0.00807834
38101 0.0204589 0.00806543
38201 0.0204099 0.00805496
38301 0.0203585 0.00804695
38401 0.0203065 0.00803497
38501 0.0202823 0.00802497
38601 0.0202311 0.00801118
38701 0.0201892 0.00799912
38801 0.0201398 0.00798752
38901 0.020094 0.00797779
39001 0.0200744 0.00796512
39101 0.0200258 0.00795398
39201 0.019984 0.00794459
39301 0.0199358 0.00793527
39401 0.019886 0.0079249
39501 0.019837 0.00791452
39601 0.0197889 0.00790561
39701 0.0197407 0.00789325
39801 0.019692 0.00788128
39901 0.0196456 0.00786902
40001 0.0196011 0.00785895
40101 0.0195562 0.00784578
40201 0.0195084 0.00783868
40301 0.019463 0.00783033
40401 0.0194162 0.00782007
40501 0.0193688 0.00781331
40601 0.0193223 0.00780208
40701 0.0192755 0.00779349
40801 0.0192309 0.00778537
40901 0.0191845 0.00777413
41001 0.0191413 0.00776474
41101 0.0190981 0.00775178
41201 0.0190556 0.00774234
41301 0.0190117 0.00773326
41401 0.0189679 0.00772173
41501 0.0189227 0.00770897
41601 0.0188787 0.00770239
41701 0.0188346 0.00769365
41801 0.0187931 0.00768218
41901 0.0187657 0.00767291
42001 0.0187263 0.00766209
42101 0.0186823 0.00765431
42201 0.0186407 0.00764466
42301 0.0186003 0.00763367
42401 0.018558 0.00762473
42501 0.0185285 0.00761831
42601 0.0184964 0.00761083
42701 0.0184552 0.00760273
42801 0.0196359 0.00759366
42901 0.0196046 0.00758227
43001 0.0195614 0.00757361
43101 0.0195176 0.00756526
43201 0.0194744 0.00755785
43301 0.0194304 0.00754811
43401 0.0193861 0.00753925
43501 0.019342 0.00752781
43601 0.019304 0.00751574
43701 0.0192748 0.00750583
43801 0.0192595 0.00749494
43901 0.0192162 0.0074841
44001 0.0191743 0.00747507
44101 0.0191312 0.00746944
44201 0.01909 0.00745857
44301 0.0190484 0.00744831
44401 0.0190072 0.00743906
44501 0.018966 0.00743188
44601 0.0189281 0.0074258
44701 0.0188864 0.00741523
44801 0.0188462 0.00740748
44901 0.0188046 0.00740221
45001 0.0187637 0.00739743
45101 0.0187235 0.00739303
45201 0.0186829 0.00738562
45301 0.0186633 0.00737805
45401 0.0186236 0.00737092
45501 0.0185839 0.00736379
45601 0.0185441 0.00735636
45701 0.0185058 0.00734783
45801 0.018472 0.00733971
45901 0.0184331 0.00733137
46001 0.0183961 0.00732353
46101 0.0183565 0.00731343
46201 0.0183211 0.00730589
46301 0.0182832 0.00729967
46401 0.0182447 0.00729104
46501 0.018208 0.0072821
46601 0.0181704 0.00727614
46701 0.0181325 0.00726782
46801 0.0181693 0.00726134
46901 0.0181311 0.00725473
47001 0.0180944 0.00724677
47101 0.0180567 0.007239
47201 0.0180246 0.00722925
47301 0.0179874 0.00722296
47401 0.0179505 0.00721526
47501 0.0179135 0.00720817
47601 0.0178769 0.00720068
47701 0.0178404 0.00719281
47801 0.0178035 0.00719276
47901 0.0177671 0.00718573
48001 0.0177349 0.00717682
48101 0.0177011 0.0071684
48201 0.0176688 0.00716176
48301 0.0176327 0.00715525
48401 0.0176038 0.0071481
48501 0.0175681 0.00714068
48601 0.0175344 0.00713286
48701 0.0175841 0.00712754
48801 0.0175488 0.00711993
48901 0.0175153 0.00711359
49001 0.017481 0.00710499
49101 0.0174463 0.00712597
49201 0.0277627 0.00711932
49301 0.0277081 0.00711494
49401 0.0276525 0.00710914
49501 0.0275974 0.00710412
49601 0.0275422 0.00709358
49701 0.0274872 0.00708558
49801 0.0274334 0.00707888
49901 0.0273789 0.00707133
50001 0.0273249 0.00706492
50101 0.0272706 0.00705828
50201 0.0272168 0.00705126
50301 0.0271697 0.00704539
50401 0.0271171 0.00704195
50501 0.0270637 0.00703847
50601 0.0270107 0.00703074
50701 0.0269588 0.00702566
50801 0.0269078 0.00702315
50901 0.0268561 0.00701641
51001 0.0268052 0.00700941
51101 0.0267532 0.00699999
51201 0.0267027 0.0069932
51301 0.0266519 0.0069879
51401 0.0266733 0.0069806
51501 0.0266223 0.00697445
51601 0.0265729 0.00696641
51701 0.0265227 0.00695826
51801 0.0264783 0.00695199
51901 0.0264288 0.00694432
52001 0.0264203 0.00693695
52101 0.0263739 0.0069299
52201 0.0263536 0.0069237
52301 0.0263055 0.00691671
52401 0.0262633 0.00690997
52501 0.0262137 0.00690212
52601 0.0262044 0.00689609
52701 0.0261574 0.00688797
52801 0.026109 0.00688104
52901 0.0260608 0.00687749
53001 0.0260529 0.00687236
53101 0.0260066 0.00686796
53201 0.0259597 0.00686108
53301 0.0259115 0.00685404
53401 0.0258633 0.00684796
53501 0.0258168 0.00684127
53601 0.0257689 0.00683454
53701 0.0257231 0.00682773
53801 0.0256769 0.00682319
53901 0.0256297 0.00681623
54001 0.0255827 0.00681002
54101 0.0255382 0.00680332
54201 0.0254915 0.00679783
54301 0.0254452 0.00679335
54401 0.025401 0.00678728
54501 0.0253556 0.00678107
54601 0.0253096 0.00677477
54701 0.0252636 0.00676832
54801 0.0252194 0.00676134
54901 0.0251771 0.00675595
55001 0.025133 0.00674929
55101 0.0250895 0.00674234
55201 0.0250465 0.00673612
55301 0.025002 0.00672935
55401 0.0249571 0.00672369
55501 0.0249155 0.006717
55601 0.024873 0.00670979
55701 0.0248378 0.00670613
55801 0.0247956 0.00669902
55901 0.0247514 0.00669466
56001 0.0247079 0.00668692
56101 0.024665 0.00668002
56201 0.0246307 0.00667313
56301 0.02459 0.00666868
56401 0.0245551 0.00666457
56501 0.0245128 0.00666031
56601 0.0244707 0.00665309
56701 0.024428 0.00664723
56801 0.024397 0.00664094
56901 0.0243545 0.00663705
57001 0.0243122 0.00663117
57101 0.0242702 0.00662678
57201 0.0242295 0.0066202
57301 0.0241908 0.00661491
57401 0.0241494 0.00660931
57501 0.0241147 0.00660368
57601 0.0240733 0.00659754
57701 0.0240393 0.00659235
57801 0.0239983 0.00658523
57901 0.0239571 0.00657978
58001 0.0239161 0.00657419
58101 0.0238752 0.00656733
58201 0.0238415 0.00656139
58301 0.0238009 0.00655689
58401 0.0237612 0.0065509
58501 0.0237208 0.0065464
58601 0.0236808 0.00654254
58701 0.0236411 0.00653716
58801 0.0236012 0.00653049
58901 0.0235625 0.00652545
59001 0.0235229 0.00651864
59101 0.0234838 0.00651292
59201 0.0234444 0.00650365
59301 0.0188167 0.00649644
59401 0.018786 0.00649061
59501 0.0187549 0.00648517
59601 0.0187241 0.00647929
59701 0.018693 0.00647374
59801 0.0186634 0.00646841
59901 0.0187116 0.00646154
60001 0.018681 0.00645703
60101 0.0186511 0.00645147
60201 0.0186221 0.00644803
60301 0.0185918 0.00644145
60401 0.0185614 0.00643514
60501 0.0185327 0.00643111
60601 0.0185136 0.00642589
60701 0.0184838 0.00642036
60801 0.0184554 0.0064152
60901 0.0184254 0.00640991
61001 0.0183974 0.00640514
61101 0.0183681 0.00640016
61201 0.0183385 0.006394
61301 0.0183092 0.00638732
61401 0.0182799 0.00638175
61501 0.018251 0.00637628
61601 0.0182237 0.00636987
61701 0.0181953 0.00636559
61801 0.0181664 0.00636155
61901 0.0181383 0.00635629
62001 0.0181097 0.00634912
62101 0.0198512 0.00634421
62201 0.0198199 0.00633815
62301 0.0198216 0.00633199
62401 0.0197905 0.00632713
62501 0.0197634 0.00632116
62601 0.0197321 0.00631558
62701 0.0197019 0.00631146
62801 0.019671 0.00630747
62901 0.0196413 0.00630052
63001 0.0196105 0.00629628
63101 0.0195798 0.00628956
63201 0.019549 0.00628392
63301 0.019522 0.00627997
63401 0.0194922 0.00627506
63501 0.0194645 0.0062701
63601 0.0194356 0.00626607
63701 0.0194095 0.00626087
63801 0.0193832 0.00625766
63901 0.0193533 0.00625224
64001 0.0193242 0.00624793
64101 0.0192945 0.00624239
64201 0.0192648 0.00623848
64301 0.0192352 0.00623424
64401 0.0192061 0.00622837
64501 0.019178 0.00622363
64601 0.019149 0.00621713
64701 0.0191206 0.00621027
64801 0.0190924 0.00620482
64901 0.0190634 0.00620034
65001 0.0190353 0.00619414
65101 0.0190072 0.00619017
65201 0.0189784 0.00618533
65301 0.0189498 0.00617902
65401 0.0189209 0.00617447
65501 0.0189355 0.00616914
65601 0.0189599 0.00616505
65701 0.0189317 0.00616028
65801 0.0189031 0.00615534
65901 0.0188755 0.0061493
66001 0.0188495 0.00614469
66101 0.0188238 0.00613868
66201 0.0188057 0.00613432
66301 0.0187795 0.00612913
66401 0.0187521 0.00612548
66501 0.0187314 0.00612141
66601 0.0187039 0.00611696
66701 0.0187298 0.006112
66801 0.0187019 0.00610802
66901 0.0186743 0.00610583
67001 0.0186467 0.00610041
67101 0.0186201 0.00609663
67201 0.0185929 0.00609204
67301 0.0185665 0.00608859
67401 0.0185392 0.00608398
67501 0.0185141 0.0060794
67601 0.018487 0.00607426
67701 0.0184614 0.00607064
67801 0.0184365 0.00606586
67901 0.0184104 0.00603135
68001 0.0484274 0.00602674
68101 0.0483565 0.00602129
68201 0.0482858 0.00601833
68301 0.0482162 0.00601443
68401 0.048146 0.0060097
68501 0.0480931 0.00600723
68601 0.0480232 0.00600252
68701 0.0479536 0.00599725
68801 0.0479471 0.00599418
68901 0.047878 0.00598886
69001 0.0478088 0.00598516
69101 0.0477399 0.00598018
69201 0.0476711 0.00597538
69301 0.0476036 0.00597054
69401 0.0475405 0.00596551
69501 0.0474869 0.00596236
69601 0.0474194 0.00595748
69701 0.0473522 0.00595198
69801 0.0472846 0.0059492
69901 0.0472176 0.00594588
70001 0.0471515 0.00594282
70101 0.0470844 0.00593746
70201 0.0470178 0.00593269
70301 0.0469515 0.00592883
70401 0.0468851 0.00592458
70501 0.0468188 0.00592018
70601 0.0467533 0.00591526
70701 0.0466879 0.0059113
70801 0.0466221 0.00590559
70901 0.0465564 0.00590203
71001 0.046491 0.005898
71101 0.0464259 0.0058931
71201 0.0463608 0.00588925
71301 0.0462965 0.00588436
71401 0.0462361 0.00588092
71501 0.046172 0.00587626
71601 0.0461076 0.00587194
71701 0.0460494 0.00586801
71801 0.0459855 0.00586368
71901 0.0459267 0.00585837
72001 0.0458631 0.00585383
72101 0.0457997 0.00585023
72201 0.0457368 0.00584659
72301 0.0456742 0.00584279
72401 0.0456112 0.00584066
72501 0.0455485 0.0058372
72601 0.0454859 0.00583254
72701 0.0454243 0.00582811
72801 0.0453622 0.00582375
72901 0.0453002 0.00582001
73001 0.0452405 0.00581587
73101 0.0452075 0.00581142
73201 0.045146 0.0058067
73301 0.0450846 0.00580196
73401 0.0450248 0.00579737
73501 0.0449638 0.00579307
73601 0.044903 0.00578804
73701 0.0448422 0.00578518
73801 0.0447815 0.00578016
73901 0.0447211 0.00577714
74001 0.0446607 0.00577211
74101 0.0446007 0.00576952
74201 0.0445408 0.00576555
74301 0.044481 0.00576223
74401 0.0444213 0.00575752
74501 0.0444161 0.00575372
74601 0.0443569 0.00574931
74701 0.0442977 0.00574518
74801 0.0442387 0.00573999
74901 0.04418 0.00573584
75001 0.0441211 0.00573198
75101 0.044067 0.00572772
75201 0.0440108 0.00572337
75301 0.0439536 0.00571861
75401 0.0438954 0.00571581
75501 0.043838 0.00571217
75601 0.0437802 0.00576356
75701 0.0322727 0.00576012
75801 0.0322312 0.00575707
75901 0.0321897 0.00575357
76001 0.0321477 0.00575043
76101 0.0321056 0.0057464
76201 0.0320636 0.00574277
76301 0.0320217 0.00573897
76401 0.0319811 0.00573581
76501 0.0319396 0.00573239
76601 0.0319016 0.00572962
76701 0.0318601 0.00572573
76801 0.0318189 0.00572295
76901 0.0317793 0.005719
77001 0.0317383 0.00571425
77101 0.0316988 0.00571157
77201 0.0316579 0.00570796
77301 0.0316172 0.00570391
77401 0.0315765 0.00570119
77501 0.0315367 0.00569905
77601 0.0314966 0.00569397
77701 0.0314562 0.0056907
77801 0.0314159 0.0056866
77901 0.0313759 0.00568345
78001 0.0313358 0.00568003
78101 0.03131 0.00567586
78201 0.0312705 0.00567165
78301 0.0312307 0.00566824
78401 0.0311911 0.00566388
78501 0.0311519 0.00566054
78601 0.0311151 0.00565732
78701 0.0310758 0.00565274
78801 0.0310385 0.00564857
78901 0.0309994 0.0056458
79001 0.0309624 0.00564202
79101 0.0309261 0.00563812
79201 0.0308874 0.00563392
79301 0.0308487 0.00563074
79401 0.03081 0.00562763
79501 0.0307718 0.00562383
79601 0.0307393 0.00562039
79701 0.0307011 0.00561577
79801 0.0306627 0.00561236
79901 0.0306262 0.00560874
80001 0.0305882 0.00560679
80101 0.0305501 0.00560269
80201 0.0305133 0.00559908
80301 0.0304758 0.00559651
80401 0.0304381 0.00559284
80501 0.0304003 0.00558895
80601 0.0303665 0.00558602
80701 0.0303295 0.00558302
80801 0.0303065 0.00557908
80901 0.0309968 0.00557512
81001 0.0309591 0.00557127
81101 0.0309232 0.00556658
81201 0.0308854 0.00556296
81301 0.0308556 0.00555921
81401 0.0308179 0.00555609
81501 0.0307858 0.00555247
81601 0.0307482 0.0055487
81701 0.0307109 0.00554556
81801 0.0306736 0.00554152
81901 0.030637 0.00553741
82001 0.0306 0.00553425
82101 0.0305653 0.00553069
82201 0.0305318 0.00552766
82301 0.0304971 0.00552456
82401 0.0304603 0.00552192
82501 0.0304235 0.00550104
82601 0.0428397 0.0054981
82701 0.0427882 0.00549417
82801 0.0427374 0.0054913
82901 0.042686 0.00548763
83001 0.0426348 0.00548401
83101 0.0425838 0.00548092
83201 0.0425327 0.00547802
83301 0.042482 0.00547485
83401 0.0424313 0.00547072
83501 0.0423807 0.00546782
83601 0.0423301 0.00546434
83701 0.0422803 0.0054612
83801 0.0422309 0.00545862
83901 0.0421868 0.00545493
84001 0.0422022 0.00545211
84101 0.0421522 0.00544861
84201 0.0421023 0.0054455
84301 0.042053 0.00544194
84401 0.0420056 0.0054382
84501 0.0419562 0.00543482
84601 0.0419081 0.00543201
84701 0.0418606 0.00542859
84801 0.0418119 0.00542584
84901 0.0417627 0.00542204
85001 0.0417138 0.00541858
85101 0.0416649 0.00541452
85201 0.0416168 0.00541058
85301 0.0415682 0.00540754
85401 0.0415197 0.00540421
85501 0.0414731 0.00540046
85601 0.0414247 0.0053968
85701 0.0413766 0.00539414
85801 0.0413284 0.0053913
85901 0.0412807 0.00538742
86001 0.0412328 0.00538324
86101 0.0411857 0.00537985
86201 0.0411382 0.00537658
86301 0.0410906 0.00537358
86401 0.0410431 0.00537043
86501 0.0409958 0.00536741
86601 0.0409493 0.00536506
86701 0.0409021 0.00536138
86801 0.0408551 0.00535774
86901 0.0408082 0.00535505
87001 0.0407615 0.00535189
87101 0.040715 0.00534852
87201 0.0406686 0.00534504
87301 0.0406222 0.0053414
87401 0.0405772 0.00533805
87501 0.0405311 0.00533421
87601 0.040485 0.00533125
87701 0.0404389 0.00532848
87801 0.0403931 0.00532576
87901 0.040348 0.0053229
88001 0.0403032 0.00532002
88101 0.0402576 0.00531646
88201 0.0402148 0.00531322
88301 0.0401694 0.00531108
88401 0.0401241 0.00530845
88501 0.0400788 0.00530514
88601 0.040034 0.00530193
88701 0.0399896 0.00529881
88801 0.0399446 0.00529565
88901 0.0398999 0.00526342
89001 0.0240229 0.00526
89101 0.0239961 0.00525711
89201 0.0239702 0.00525434
89301 0.0239483 0.00525096
89401 0.0239218 0.00524752
89501 0.0238957 0.00524496
89601 0.0238692 0.00524249
89701 0.0238428 0.00523966
89801 0.0238165 0.00523723
89901 0.0237902 0.00523419
90001 0.0237645 0.00523159
90101 0.0237386 0.00522889
90201 0.0237124 0.00522556
90301 0.0236938 0.00522255
90401 0.0236691 0.00522056
90501 0.0236431 0.00521677
90601 0.0236173 0.00521439
90701 0.0235917 0.00521204
90801 0.023566 0.00520868
90901 0.0235404 0.00520529
91001 0.0235164 0.00520224
91101 0.0234908 0.00519975
91201 0.0234658 0.00519687
91301 0.0234402 0.00519422
91401 0.0234148 0.00519089
91501 0.0233894 0.00518856
91601 0.0233646 0.00518467
91701 0.0233394 0.00518188
91801 0.0233141 0.00517987
91901 0.0232889 0.00517766
92001 0.0232645 0.00517431
92101 0.0232393 0.0051724
92201 0.0232144 0.00517006
92301 0.0231913 0.0051667
92401 0.0231664 0.00516369
92501 0.0231426 0.005161
92601 0.0231179 0.00515806
92701 0.023093 0.00515527
92801 0.0230685 0.00515243
92901 0.0230443 0.0051493
93001 0.0230263 0.00514574
93101 0.0230017 0.00514347
93201 0.0229774 0.00514119
93301 0.0229707 0.00513809
93401 0.0229463 0.00513469
93501 0.0229223 0.00513141
93601 0.0228979 0.00512948
93701 0.0228736 0.00512694
93801 0.0228494 0.00512388
93901 0.0228254 0.00512088
94001 0.0228013 0.00511877
94101 0.0227771 0.00511676
94201 0.0227542 0.00511395
94301 0.0227302 0.00511131
94401 0.0227142 0.00510875
94501 0.0226903 0.00510546
94601 0.0226665 0.00510247
94701 0.0226427 0.00509971
94801 0.0226197 0.00509604
94901 0.0225961 0.00509272
95001 0.0125656 0.00511454
95101 0.0125527 0.00511119
95201 0.0125399 0.00510767
95301 0.012527 0.00510519
95401 0.0125168 0.00510298
95501 0.0125038 0.00509939
95601 0.0124916 0.00509682
95701 0.0124787 0.00509385
95801 0.0124659 0.00509145
95901 0.012457 0.00508912
96001 0.0124442 0.00508632
96101 0.0124317 0.00508394
96201 0.0124194 0.00508126
96301 0.0124075 0.00507968
96401 0.012396 0.00507653
96501 0.0123866 0.00507336
96601 0.0123743 0.00507139
96701 0.0123617 0.00506908
96801 0.0123504 0.00506773
96901 0.012338 0.00506415
97001 0.0123256 0.00506123
97101 0.0123132 0.00505989
97201 0.012312 0.00505766
97301 0.0122997 0.0050549
97401 0.0122872 0.00505191
97501 0.0122748 0.00504947
97601 0.0122626 0.0050476
97701 0.0122525 0.0050449
97801 0.0122427 0.00504251
97901 0.0122303 0.00503971
98001 0.0122187 0.00503713
98101 0.0122067 0.00503435
98201 0.0121944 0.00503132
98301 0.0121828 0.00502888
98401 0.0121706 0.00502672
98501 0.0121586 0.00502457
98601 0.0121558 0.00502186
98701 0.0121437 0.00501894
98801 0.0121321 0.00501601
98901 0.01212 0.0050129
99001 0.0121078 0.00501173
99101 0.0120959 0.00500878
99201 0.0120928 0.00500612
99301 0.0120809 0.00500376
99401 0.0120695 0.00500205
99501 0.0120578 0.00499943
99601 0.0120493 0.00499596
99701 0.0120386 0.00499365
99801 0.0120277 0.00499064
99901 0.0120159 0.00498824
